{ "compressionlevel":-1,
 "height":20,
 "infinite":false,
 "layers":[
        {
         "data":[0, 0, 0, 0, 0, 0, 0, 0, 0, 0, 0, 0, 0, 0, 0, 0, 0, 0, 0, 0, 0, 0, 0, 0, 0, 0, 0, 0,
            0, 0, 0, 0, 0, 0, 0, 0, 0, 0, 0, 0, 0, 0, 0, 0, 0, 0, 0, 0, 0, 0, 0, 0, 0, 0, 0, 0,
            0, 0, 0, 0, 0, 0, 0, 0, 0, 0, 0, 0, 0, 0, 0, 0, 0, 0, 0, 0, 0, 0, 0, 0, 0, 0, 0, 0,
            0, 0, 0, 0, 0, 0, 0, 0, 0, 0, 0, 0, 0, 0, 0, 0, 0, 0, 0, 0, 0, 0, 0, 0, 0, 0, 0, 0,
            0, 0, 0, 0, 0, 0, 0, 0, 0, 0, 0, 0, 0, 0, 0, 0, 0, 0, 0, 0, 0, 0, 0, 0, 0, 0, 0, 0,
            0, 0, 0, 0, 0, 0, 0, 0, 0, 109, 0, 0, 0, 109, 0, 0, 0, 0, 0, 0, 0, 0, 0, 0, 0, 0, 0, 0,
            0, 0, 0, 0, 0, 0, 0, 0, 0, 0, 0, 0, 0, 0, 0, 0, 0, 0, 0, 0, 0, 0, 0, 0, 0, 0, 0, 0,
            0, 0, 0, 0, 0, 0, 0, 0, 0, 0, 0, 0, 0, 0, 0, 0, 0, 0, 0, 0, 0, 0, 0, 0, 0, 0, 0, 0,
            0, 0, 0, 0, 0, 0, 0, 0, 0, 0, 0, 0, 0, 0, 0, 0, 0, 0, 0, 0, 0, 0, 0, 0, 0, 0, 0, 0,
            0, 0, 0, 0, 0, 0, 0, 0, 0, 0, 0, 0, 0, 0, 0, 0, 0, 0, 0, 0, 0, 0, 0, 0, 0, 0, 0, 0,
            0, 0, 0, 0, 0, 0, 0, 0, 0, 0, 0, 0, 0, 0, 0, 0, 0, 0, 0, 0, 0, 0, 0, 0, 0, 0, 0, 0,
            0, 0, 0, 0, 0, 0, 0, 0, 0, 4, 0, 4, 0, 0, 0, 0, 0, 0, 0, 0, 0, 0, 0, 0, 0, 0, 0, 0,
            0, 0, 0, 0, 0, 0, 0, 0, 0, 4, 0, 0, 0, 0, 0, 0, 0, 0, 0, 0, 0, 0, 0, 0, 0, 0, 0, 0,
            0, 0, 0, 0, 0, 0, 0, 0, 0, 4, 0, 0, 0, 0, 0, 0, 0, 0, 0, 0, 0, 0, 0, 0, 0, 0, 0, 0,
            0, 0, 0, 0, 0, 0, 0, 0, 0, 0, 0, 0, 0, 0, 0, 0, 0, 0, 0, 0, 0, 0, 0, 0, 0, 0, 0, 0,
            0, 0, 0, 0, 0, 0, 0, 0, 0, 0, 0, 0, 0, 129, 0, 0, 0, 82, 0, 0, 0, 0, 0, 0, 0, 0, 0, 0,
            0, 0, 0, 0, 0, 0, 0, 0, 0, 0, 0, 0, 0, 0, 0, 0, 0, 0, 0, 0, 0, 0, 0, 0, 0, 0, 0, 0,
            0, 0, 0, 0, 0, 0, 0, 0, 0, 0, 0, 0, 0, 0, 0, 0, 0, 0, 0, 0, 0, 0, 0, 0, 0, 0, 0, 0,
            0, 0, 0, 0, 0, 0, 0, 0, 0, 0, 0, 0, 0, 0, 0, 0, 0, 0, 0, 0, 0, 0, 0, 0, 0, 0, 0, 0,
            0, 0, 0, 0, 0, 0, 0, 0, 0, 0, 0, 0, 0, 0, 0, 0, 0, 0, 0, 0, 0, 0, 0, 0, 0, 0, 0, 0],
         "height":20,
         "id":3,
         "name":"decorations",
         "opacity":1,
         "type":"tilelayer",
         "visible":true,
         "width":28,
         "x":0,
         "y":0
        }, 
        {
         "data":[0, 0, 0, 0, 0, 0, 0, 0, 0, 0, 0, 0, 0, 0, 0, 0, 0, 0, 0, 0, 0, 0, 0, 0, 0, 0, 0, 0,
            0, 0, 0, 0, 0, 0, 0, 0, 0, 0, 0, 0, 0, 0, 0, 0, 0, 0, 0, 0, 0, 0, 0, 0, 0, 0, 0, 0,
            0, 0, 0, 0, 0, 0, 0, 0, 0, 0, 0, 0, 0, 0, 0, 0, 0, 0, 0, 0, 0, 0, 0, 0, 0, 0, 0, 0,
            0, 0, 0, 0, 0, 0, 0, 89, 86, 86, 86, 86, 86, 86, 86, 86, 86, 86, 86, 2147483736, 2147483736, 2147483735, 0, 0, 0, 0, 0, 0,
            0, 0, 0, 0, 0, 0, 0, 87, 0, 0, 0, 0, 0, 0, 0, 0, 0, 0, 0, 0, 0, 2147483734, 0, 0, 0, 0, 0, 0,
            0, 0, 0, 0, 0, 0, 0, 2147483734, 0, 0, 0, 0, 0, 0, 0, 0, 0, 0, 0, 0, 86, 2147483737, 0, 0, 0, 0, 0, 0,
            0, 0, 0, 0, 0, 0, 0, 87, 0, 0, 0, 0, 0, 0, 0, 0, 0, 0, 0, 0, 2147483734, 0, 0, 0, 0, 0, 0, 0,
            0, 0, 0, 0, 0, 0, 89, 86, 2147483734, 2147483734, 2147483734, 2147483735, 2147483734, 2147483734, 2147483736, 2147483734, 2147483737, 2147483737, 0, 0, 2147483734, 0, 0, 0, 0, 0, 0, 0,
            0, 0, 0, 0, 0, 0, 86, 0, 0, 0, 0, 0, 0, 0, 0, 0, 0, 0, 0, 0, 2147483734, 0, 0, 0, 0, 0, 0, 0,
            0, 0, 0, 0, 0, 0, 89, 0, 0, 0, 0, 0, 0, 0, 0, 0, 0, 0, 0, 0, 2147483735, 0, 0, 0, 0, 0, 0, 0,
            0, 0, 0, 0, 0, 0, 89, 86, 2147483734, 2147483734, 2147483735, 2147483736, 0, 0, 0, 0, 0, 0, 0, 0, 2147483734, 0, 0, 0, 0, 0, 0, 0,
            0, 0, 0, 0, 0, 0, 0, 86, 0, 0, 0, 0, 0, 0, 0, 86, 88, 86, 86, 88, 2147483734, 2147483737, 0, 0, 0, 0, 0, 0,
            0, 0, 0, 0, 0, 0, 0, 86, 0, 0, 0, 0, 0, 0, 0, 0, 0, 0, 0, 0, 0, 2147483734, 0, 0, 0, 0, 0, 0,
            0, 0, 0, 0, 0, 0, 0, 87, 0, 0, 0, 0, 0, 0, 0, 0, 0, 0, 0, 0, 0, 2147483734, 0, 0, 0, 0, 0, 0,
            0, 0, 0, 0, 0, 0, 86, 2147483734, 0, 0, 0, 0, 0, 0, 0, 0, 0, 0, 0, 0, 0, 2147483735, 0, 0, 0, 0, 0, 0,
            0, 0, 0, 0, 0, 0, 88, 0, 0, 0, 0, 0, 0, 0, 0, 0, 0, 0, 0, 0, 0, 2147483736, 0, 0, 0, 0, 0, 0,
            0, 0, 0, 0, 0, 0, 88, 86, 86, 86, 86, 86, 86, 86, 86, 86, 86, 87, 2147483736, 86, 2147483737, 2147483737, 0, 0, 0, 0, 0, 0,
            0, 0, 0, 0, 0, 0, 0, 0, 0, 0, 0, 0, 0, 0, 0, 0, 0, 0, 0, 0, 0, 0, 0, 0, 0, 0, 0, 0,
            0, 0, 0, 0, 0, 0, 0, 0, 0, 0, 0, 0, 0, 0, 0, 0, 0, 0, 0, 0, 0, 0, 0, 0, 0, 0, 0, 0,
            0, 0, 0, 0, 0, 0, 0, 0, 0, 0, 0, 0, 0, 0, 0, 0, 0, 0, 0, 0, 0, 0, 0, 0, 0, 0, 0, 0],
         "height":20,
         "id":1,
         "name":"walls",
         "opacity":1,
         "type":"tilelayer",
         "visible":true,
         "width":28,
         "x":0,
         "y":0
        }, 
        {
         "draworder":"topdown",
         "id":2,
         "name":"doors",
         "objects":[
                {
                 "gid":81,
                 "height":16,
                 "id":9,
                 "name":"",
                 "rotation":0,
                 "type":"",
                 "visible":true,
                 "width":16,
                 "x":176,
                 "y":112
                }],
         "opacity":1,
         "type":"objectgroup",
         "visible":true,
         "x":0,
         "y":0
        }, 
        {
         "draworder":"topdown",
         "id":4,
         "name":"coins",
         "objects":[
                {
                 "gid":147,
                 "height":16,
                 "id":5,
                 "name":"",
                 "rotation":0,
                 "type":"",
                 "visible":true,
                 "width":16,
                 "x":320,
                 "y":80
                }, 
                {
                 "gid":147,
                 "height":16,
                 "id":6,
                 "name":"",
                 "rotation":0,
                 "type":"",
                 "visible":true,
                 "width":16,
                 "x":112,
                 "y":256
                }, 
                {
                 "gid":147,
                 "height":16,
                 "id":11,
                 "name":"",
                 "rotation":0,
                 "type":"",
                 "visible":true,
                 "width":16,
                 "x":240,
                 "y":96
                }, 
                {
                 "gid":147,
                 "height":16,
                 "id":12,
                 "name":"",
                 "rotation":0,
                 "type":"",
                 "visible":true,
                 "width":16,
                 "x":272,
                 "y":160
                }],
         "opacity":1,
         "type":"objectgroup",
         "visible":true,
         "x":0,
         "y":0
        }, 
        {
         "draworder":"topdown",
         "id":5,
         "name":"chests",
         "objects":[
                {
                 "gid":2147483772,
                 "height":16,
                 "id":10,
                 "name":"",
                 "rotation":0,
                 "type":"",
                 "visible":true,
                 "width":16,
                 "x":160,
                 "y":160
                }],
         "opacity":1,
         "type":"objectgroup",
         "visible":true,
         "x":0,
         "y":0
        }, 
        {
         "draworder":"topdown",
         "id":6,
         "name":"spikes",
         "objects":[
                {
                 "gid":142,
                 "height":16,
                 "id":3,
                 "name":"",
                 "rotation":0,
                 "type":"",
                 "visible":true,
                 "width":16,
                 "x":160,
                 "y":256
                }, 
                {
                 "gid":142,
                 "height":16,
                 "id":4,
                 "name":"",
                 "rotation":0,
                 "type":"",
                 "visible":true,
                 "width":16,
                 "x":176,
                 "y":256
                }, 
                {
                 "gid":24,
                 "height":16,
                 "id":13,
                 "name":"",
                 "rotation":0,
                 "type":"",
                 "visible":true,
                 "width":16,
                 "x":176,
                 "y":208
                }],
         "opacity":1,
         "type":"objectgroup",
         "visible":true,
         "x":0,
         "y":0
        }, 
        {
         "draworder":"topdown",
         "id":7,
         "name":"signs",
         "objects":[
                {
                 "gid":167,
                 "height":16,
                 "id":1,
                 "name":"",
                 "properties":[
                        {
                         "name":"text",
                         "type":"string",
                         "value":"''Warning: Very dangerous prisoners.''"
                        }],
                 "rotation":0,
                 "type":"",
                 "visible":true,
                 "width":16,
                 "x":272,
                 "y":176
                }, 
                {
                 "gid":167,
                 "height":16,
                 "id":8,
                 "name":"",
                 "properties":[
                        {
                         "name":"text",
                         "type":"string",
                         "value":"''Cellblock D''"
                        }],
                 "rotation":0,
                 "type":"",
                 "visible":true,
                 "width":16,
                 "x":240,
                 "y":112
                }],
         "opacity":1,
         "type":"objectgroup",
         "visible":true,
         "x":0,
         "y":0
        }, 
        {
         "draworder":"topdown",
         "id":8,
         "name":"player",
         "objects":[
                {
                 "gid":61,
                 "height":16,
                 "id":14,
                 "name":"",
                 "rotation":0,
                 "type":"",
                 "visible":true,
                 "width":16,
                 "x":256,
                 "y":256
                }],
         "opacity":1,
         "type":"objectgroup",
         "visible":true,
         "x":0,
         "y":0
        }],
 "nextlayerid":9,
 "nextobjectid":15,
 "orientation":"orthogonal",
 "renderorder":"right-down",
 "tiledversion":"1.11.0",
 "tileheight":16,
 "tilesets":[
        {
         "columns":20,
         "firstgid":1,
         "image":"1 bit dungeon tileset white.png",
         "imageheight":272,
         "imagewidth":320,
         "margin":0,
         "name":"1 bit dungeon tileset white",
         "spacing":0,
         "tilecount":340,
         "tileheight":16,
         "tiles":[
                {
                 "animation":[
                        {
                         "duration":300,
                         "tileid":20
                        }, 
                        {
                         "duration":300,
                         "tileid":21
                        }, 
                        {
                         "duration":300,
                         "tileid":22
                        }],
                 "id":20
                }, 
                {
                 "id":85,
                 "properties":[
                        {
                         "name":"collides",
                         "type":"bool",
                         "value":true
                        }]
                }, 
                {
                 "id":86,
                 "properties":[
                        {
                         "name":"collides",
                         "type":"bool",
                         "value":true
                        }]
                }, 
                {
                 "id":87,
                 "properties":[
                        {
                         "name":"collides",
                         "type":"bool",
                         "value":true
                        }]
                }, 
                {
                 "id":88,
                 "properties":[
                        {
                         "name":"collides",
                         "type":"bool",
                         "value":true
                        }]
                }, 
                {
                 "id":89,
                 "properties":[
                        {
                         "name":"collides",
                         "type":"bool",
                         "value":true
                        }]
                }, 
                {
                 "id":90,
                 "properties":[
                        {
                         "name":"collides",
                         "type":"bool",
                         "value":true
                        }]
                }, 
                {
                 "id":91,
                 "properties":[
                        {
                         "name":"collides",
                         "type":"bool",
                         "value":true
                        }]
                }, 
                {
                 "animation":[
                        {
                         "duration":300,
                         "tileid":108
                        }, 
                        {
                         "duration":300,
                         "tileid":109
                        }, 
                        {
                         "duration":300,
                         "tileid":110
                        }],
                 "id":108
                }, 
                {
                 "animation":[
                        {
                         "duration":300,
                         "tileid":109
                        }, 
                        {
                         "duration":300,
                         "tileid":110
                        }, 
                        {
                         "duration":300,
                         "tileid":108
                        }],
                 "id":109
                }, 
                {
                 "animation":[
                        {
                         "duration":300,
                         "tileid":110
                        }, 
                        {
                         "duration":300,
                         "tileid":108
                        }, 
                        {
                         "duration":300,
                         "tileid":109
                        }],
                 "id":110
                }, 
                {
                 "id":140,
                 "properties":[
                        {
                         "name":"ladder",
                         "type":"bool",
                         "value":true
                        }]
                }, 
                {
                 "id":142,
                 "properties":[
                        {
                         "name":"text",
                         "type":"bool",
                         "value":true
                        }]
                }, 
                {
                 "animation":[
                        {
                         "duration":300,
                         "tileid":146
                        }, 
                        {
                         "duration":300,
                         "tileid":147
                        }, 
                        {
                         "duration":300,
                         "tileid":148
                        }, 
                        {
                         "duration":300,
                         "tileid":149
                        }],
                 "id":146
                }, 
                {
                 "animation":[
                        {
                         "duration":300,
                         "tileid":160
                        }, 
                        {
                         "duration":300,
                         "tileid":161
                        }],
                 "id":160,
                 "properties":[
                        {
                         "name":"depth",
                         "type":"int",
                         "value":0
                        }]
                }, 
                {
                 "animation":[
                        {
                         "duration":300,
                         "tileid":161
                        }, 
                        {
                         "duration":300,
                         "tileid":160
                        }],
                 "id":161,
                 "properties":[
                        {
                         "name":"depth",
                         "type":"int",
                         "value":0
                        }]
                }, 
                {
                 "animation":[
                        {
                         "duration":300,
                         "tileid":180
                        }, 
                        {
                         "duration":300,
                         "tileid":181
                        }, 
                        {
                         "duration":300,
                         "tileid":180
                        }, 
                        {
                         "duration":300,
                         "tileid":181
                        }, 
                        {
                         "duration":300,
                         "tileid":182
                        }, 
                        {
                         "duration":300,
                         "tileid":183
                        }, 
                        {
                         "duration":300,
                         "tileid":184
                        }, 
                        {
                         "duration":300,
                         "tileid":185
                        }],
                 "id":180,
                 "properties":[
                        {
                         "name":"depth",
                         "type":"int",
                         "value":0
                        }]
                }, 
                {
                 "animation":[
                        {
                         "duration":300,
                         "tileid":181
                        }, 
                        {
                         "duration":300,
                         "tileid":180
                        }, 
                        {
                         "duration":300,
                         "tileid":181
                        }, 
                        {
                         "duration":300,
                         "tileid":182
                        }, 
                        {
                         "duration":300,
                         "tileid":183
                        }, 
                        {
                         "duration":300,
                         "tileid":184
                        }, 
                        {
                         "duration":300,
                         "tileid":185
                        }, 
                        {
                         "duration":300,
                         "tileid":180
                        }],
                 "id":181,
                 "properties":[
                        {
                         "name":"depth",
                         "type":"int",
                         "value":0
                        }]
                }, 
                {
                 "animation":[
                        {
                         "duration":300,
                         "tileid":180
                        }, 
                        {
                         "duration":300,
                         "tileid":181
                        }, 
                        {
                         "duration":300,
                         "tileid":182
                        }, 
                        {
                         "duration":300,
                         "tileid":183
                        }, 
                        {
                         "duration":300,
                         "tileid":184
                        }, 
                        {
                         "duration":300,
                         "tileid":185
                        }, 
                        {
                         "duration":300,
                         "tileid":180
                        }, 
                        {
                         "duration":300,
                         "tileid":181
                        }],
                 "id":182,
                 "properties":[
                        {
                         "name":"depth",
                         "type":"int",
                         "value":0
                        }]
                }, 
                {
                 "id":183,
                 "properties":[
                        {
                         "name":"depth",
                         "type":"int",
                         "value":0
                        }]
                }, 
                {
                 "id":184,
                 "properties":[
                        {
                         "name":"depth",
                         "type":"int",
                         "value":0
                        }]
                }, 
                {
                 "id":185,
                 "properties":[
                        {
                         "name":"depth",
                         "type":"int",
                         "value":0
                        }]
                }, 
                {
                 "id":284,
                 "properties":[
                        {
                         "name":"depth",
                         "type":"int",
                         "value":2
                        }]
                }, 
                {
                 "id":286,
                 "properties":[
                        {
                         "name":"depth",
                         "type":"int",
                         "value":1
                        }]
                }, 
                {
                 "id":287,
                 "properties":[
                        {
                         "name":"depth",
                         "type":"int",
                         "value":1
                        }]
                }, 
                {
                 "id":304,
                 "properties":[
                        {
                         "name":"depth",
                         "type":"int",
                         "value":3
                        }]
                }, 
                {
                 "id":306,
                 "properties":[
                        {
                         "name":"depth",
                         "type":"int",
                         "value":1
                        }]
                }, 
                {
                 "id":307,
                 "properties":[
                        {
                         "name":"depth",
                         "type":"int",
                         "value":1
                        }]
                }],
         "tilewidth":16
        }],
 "tilewidth":16,
 "type":"map",
 "version":"1.10",
 "width":28
}