{ "compressionlevel":-1,
 "height":18,
 "infinite":false,
 "layers":[
        {
         "data":[0, 0, 0, 0, 0, 0, 86, 0, 2147483734, 0, 0, 0, 0, 0, 0, 0, 0, 0, 0, 0, 0, 0, 0, 0, 0, 0, 0, 0, 0, 0, 0, 0, 0, 0, 0, 0, 0, 0, 0, 0, 0, 0, 0, 0,
            0, 0, 0, 0, 0, 0, 86, 0, 2147483734, 0, 0, 0, 0, 0, 0, 0, 0, 0, 0, 0, 0, 0, 0, 0, 0, 0, 0, 0, 0, 0, 0, 0, 0, 0, 0, 0, 0, 0, 0, 0, 0, 0, 0, 0,
            0, 0, 0, 0, 86, 86, 86, 0, 2147483734, 2147483734, 2147483734, 2147483734, 2147483734, 2147483734, 2147483734, 2147483734, 2147483734, 2147483734, 2147483734, 2147483734, 2147483734, 2147483734, 2147483734, 2147483734, 2147483734, 2147483734, 2147483734, 2147483734, 2147483734, 2147483734, 2147483734, 2147483734, 2147483734, 2147483734, 2147483734, 2147483734, 2147483734, 2147483734, 2147483734, 2147483734, 0, 0, 0, 0,
            0, 0, 0, 0, 86, 0, 0, 0, 0, 0, 0, 0, 0, 0, 0, 0, 0, 0, 0, 0, 0, 0, 0, 0, 0, 0, 0, 0, 0, 0, 0, 0, 0, 0, 0, 0, 0, 0, 0, 2147483734, 0, 0, 0, 0,
            0, 0, 0, 0, 86, 0, 0, 0, 0, 0, 0, 0, 0, 0, 0, 0, 0, 0, 0, 0, 0, 0, 0, 0, 0, 0, 0, 0, 0, 0, 0, 0, 0, 0, 0, 0, 0, 0, 0, 2147483734, 0, 0, 0, 0,
            0, 0, 0, 0, 86, 0, 0, 0, 0, 0, 0, 0, 0, 0, 0, 0, 0, 0, 0, 0, 0, 0, 0, 0, 0, 0, 0, 0, 0, 0, 86, 86, 86, 86, 86, 86, 86, 86, 86, 2147483734, 0, 0, 0, 0,
            0, 0, 0, 0, 86, 0, 0, 0, 0, 0, 0, 0, 0, 0, 0, 0, 0, 0, 0, 0, 0, 86, 86, 2147483734, 0, 0, 0, 0, 0, 0, 86, 0, 0, 0, 0, 0, 0, 0, 0, 2147483734, 0, 0, 0, 0,
            0, 0, 0, 0, 86, 0, 0, 0, 0, 0, 0, 0, 0, 0, 0, 0, 0, 0, 0, 0, 0, 0, 0, 0, 0, 0, 0, 0, 0, 86, 86, 2147483734, 0, 0, 0, 0, 0, 0, 0, 2147483734, 0, 0, 0, 0,
            0, 0, 0, 0, 86, 0, 0, 0, 0, 0, 0, 0, 0, 0, 0, 0, 0, 0, 0, 0, 0, 0, 0, 0, 0, 0, 0, 0, 0, 0, 0, 0, 0, 0, 0, 0, 0, 0, 0, 2147483734, 0, 0, 0, 0,
            0, 0, 0, 0, 86, 0, 0, 0, 0, 0, 0, 0, 0, 0, 0, 86, 86, 86, 86, 86, 2147483734, 0, 0, 0, 0, 0, 0, 0, 0, 0, 0, 0, 0, 0, 0, 0, 0, 0, 0, 2147483734, 0, 0, 0, 0,
            0, 0, 0, 0, 86, 0, 0, 0, 0, 0, 0, 0, 0, 0, 0, 0, 0, 0, 0, 0, 86, 0, 0, 86, 86, 86, 86, 86, 2147483734, 0, 0, 0, 0, 0, 0, 0, 0, 0, 0, 2147483734, 0, 0, 0, 0,
            0, 0, 0, 0, 86, 0, 0, 0, 0, 0, 0, 0, 0, 0, 0, 0, 0, 0, 0, 0, 86, 86, 86, 2147483734, 0, 0, 0, 0, 86, 0, 0, 0, 0, 0, 0, 0, 0, 0, 0, 2147483734, 0, 0, 0, 0,
            0, 0, 0, 0, 86, 86, 86, 2147483734, 0, 0, 0, 86, 86, 86, 2147483734, 2147483734, 2147483734, 0, 0, 0, 0, 0, 0, 0, 0, 0, 0, 0, 86, 0, 0, 0, 0, 0, 0, 0, 0, 0, 0, 2147483734, 0, 0, 0, 0,
            0, 0, 0, 0, 86, 0, 0, 0, 0, 0, 0, 0, 0, 0, 0, 0, 0, 0, 0, 0, 0, 0, 0, 0, 0, 86, 86, 86, 86, 0, 0, 0, 0, 0, 0, 0, 0, 0, 0, 2147483734, 0, 0, 0, 0,
            0, 0, 0, 0, 86, 0, 0, 0, 0, 0, 0, 0, 0, 0, 0, 0, 0, 0, 0, 0, 0, 0, 0, 0, 0, 86, 86, 86, 86, 0, 0, 0, 0, 0, 0, 0, 0, 0, 0, 2147483734, 0, 0, 0, 0,
            0, 0, 0, 0, 86, 86, 2147483734, 2147483734, 2147483734, 2147483734, 2147483734, 2147483734, 2147483734, 2147483734, 2147483734, 2147483734, 2147483734, 2147483734, 2147483734, 2147483734, 2147483734, 2147483734, 2147483734, 2147483734, 2147483734, 2147483734, 2147483734, 2147483734, 2147483734, 2147483734, 2147483734, 2147483734, 2147483734, 2147483734, 2147483734, 2147483734, 2147483734, 2147483734, 2147483734, 2147483734, 0, 0, 0, 0,
            0, 0, 0, 0, 0, 0, 0, 0, 0, 0, 0, 0, 0, 0, 0, 0, 0, 0, 0, 0, 0, 0, 0, 0, 0, 0, 0, 0, 0, 0, 0, 0, 0, 0, 0, 0, 0, 0, 0, 0, 0, 0, 0, 0,
            0, 0, 0, 0, 0, 0, 0, 0, 0, 0, 0, 0, 0, 0, 0, 0, 0, 0, 0, 0, 0, 0, 0, 0, 0, 0, 0, 0, 0, 0, 0, 0, 0, 0, 0, 0, 0, 0, 0, 0, 0, 0, 0, 0],
         "height":18,
         "id":1,
         "name":"walls",
         "opacity":1,
         "type":"tilelayer",
         "visible":true,
         "width":44,
         "x":0,
         "y":0
        }, 
        {
         "data":[0, 0, 0, 0, 0, 0, 0, 0, 0, 0, 0, 0, 0, 0, 0, 0, 0, 0, 0, 0, 0, 0, 0, 0, 0, 0, 0, 0, 0, 0, 0, 0, 0, 0, 0, 0, 0, 0, 0, 0, 0, 0, 0, 0,
            0, 0, 0, 0, 0, 0, 0, 0, 0, 0, 0, 0, 0, 0, 0, 0, 0, 0, 0, 0, 0, 0, 0, 0, 0, 0, 0, 0, 0, 0, 0, 0, 0, 0, 0, 0, 0, 0, 0, 0, 0, 0, 0, 0,
            0, 0, 0, 0, 0, 0, 0, 0, 0, 0, 0, 0, 0, 0, 0, 0, 0, 0, 0, 0, 0, 0, 0, 0, 0, 0, 0, 0, 0, 0, 0, 0, 0, 0, 0, 0, 0, 0, 0, 0, 0, 0, 0, 0,
            0, 0, 0, 0, 0, 0, 102, 0, 102, 0, 0, 0, 0, 0, 0, 0, 0, 0, 0, 0, 0, 0, 0, 0, 0, 0, 0, 0, 0, 0, 0, 0, 0, 0, 0, 0, 0, 0, 0, 0, 0, 0, 0, 0,
            0, 0, 0, 0, 0, 0, 102, 0, 0, 0, 0, 0, 0, 0, 0, 0, 0, 0, 0, 0, 0, 109, 0, 109, 0, 0, 0, 0, 0, 0, 0, 0, 0, 0, 0, 0, 0, 0, 0, 0, 0, 0, 0, 0,
            0, 0, 0, 0, 0, 0, 0, 0, 0, 0, 0, 0, 0, 0, 0, 0, 0, 0, 0, 0, 0, 0, 0, 0, 0, 0, 0, 0, 0, 0, 0, 0, 0, 0, 0, 0, 0, 0, 0, 0, 0, 0, 0, 0,
            0, 0, 0, 0, 0, 0, 0, 0, 0, 0, 0, 0, 0, 0, 0, 0, 0, 0, 0, 0, 0, 0, 0, 0, 0, 0, 0, 0, 0, 0, 0, 0, 0, 0, 0, 0, 0, 0, 0, 0, 0, 0, 0, 0,
            0, 0, 0, 0, 0, 0, 0, 0, 0, 0, 0, 0, 0, 0, 0, 0, 0, 0, 0, 0, 0, 0, 0, 0, 0, 0, 0, 0, 0, 0, 0, 0, 0, 0, 0, 0, 0, 0, 0, 0, 0, 0, 0, 0,
            0, 0, 0, 0, 0, 0, 0, 0, 0, 0, 0, 0, 0, 0, 0, 0, 0, 0, 0, 0, 0, 0, 0, 0, 0, 0, 0, 0, 0, 0, 0, 0, 0, 0, 0, 0, 0, 0, 0, 0, 0, 0, 0, 0,
            0, 0, 0, 0, 0, 0, 0, 0, 0, 0, 0, 0, 0, 0, 0, 0, 0, 0, 0, 0, 0, 0, 0, 0, 0, 0, 0, 0, 0, 0, 0, 0, 0, 0, 0, 0, 0, 0, 0, 0, 0, 0, 0, 0,
            0, 0, 0, 0, 0, 0, 0, 0, 0, 0, 0, 0, 0, 0, 0, 0, 0, 0, 0, 0, 0, 0, 0, 0, 0, 0, 0, 0, 0, 0, 0, 0, 0, 0, 0, 0, 0, 0, 0, 0, 0, 0, 0, 0,
            0, 0, 0, 0, 0, 0, 0, 0, 0, 0, 0, 0, 0, 0, 0, 0, 0, 0, 0, 0, 0, 0, 0, 0, 0, 0, 0, 0, 0, 0, 0, 0, 0, 0, 0, 0, 0, 0, 0, 0, 0, 0, 0, 0,
            0, 0, 0, 0, 0, 0, 0, 0, 0, 0, 0, 0, 0, 0, 0, 0, 0, 0, 0, 0, 0, 0, 0, 0, 0, 0, 105, 127, 0, 0, 0, 0, 0, 0, 0, 0, 0, 0, 0, 0, 0, 0, 0, 0,
            0, 0, 0, 0, 0, 0, 0, 0, 0, 0, 0, 0, 0, 0, 0, 0, 0, 0, 0, 0, 0, 0, 0, 0, 0, 0, 0, 0, 0, 0, 0, 0, 0, 0, 0, 0, 0, 0, 0, 0, 0, 0, 0, 0,
            0, 0, 0, 0, 0, 0, 0, 126, 0, 106, 126, 0, 0, 0, 0, 0, 0, 0, 0, 0, 0, 0, 106, 126, 0, 0, 0, 0, 0, 0, 0, 0, 0, 0, 0, 0, 0, 0, 0, 0, 0, 0, 0, 0,
            0, 0, 0, 0, 0, 0, 0, 0, 0, 0, 0, 0, 0, 0, 0, 0, 0, 0, 0, 0, 0, 0, 0, 0, 0, 0, 0, 0, 0, 0, 0, 0, 0, 0, 0, 0, 0, 0, 0, 0, 0, 0, 0, 0,
            0, 0, 0, 0, 0, 0, 0, 0, 0, 0, 0, 0, 0, 0, 0, 0, 0, 0, 0, 0, 0, 0, 0, 0, 0, 0, 0, 0, 0, 0, 0, 0, 0, 0, 0, 0, 0, 0, 0, 0, 0, 0, 0, 0,
            0, 0, 0, 0, 0, 0, 0, 0, 0, 0, 0, 0, 0, 0, 0, 0, 0, 0, 0, 0, 0, 0, 0, 0, 0, 0, 0, 0, 0, 0, 0, 0, 0, 0, 0, 0, 0, 0, 0, 0, 0, 0, 0, 0],
         "height":18,
         "id":9,
         "name":"decorations",
         "opacity":1,
         "type":"tilelayer",
         "visible":true,
         "width":44,
         "x":0,
         "y":0
        }, 
        {
         "data":[0, 0, 0, 0, 0, 0, 0, 0, 0, 0, 0, 0, 0, 0, 0, 0, 0, 0, 0, 0, 0, 0, 0, 0, 0, 0, 0, 0, 0, 0, 0, 0, 0, 0, 0, 0, 0, 0, 0, 0, 0, 0, 0, 0,
            0, 0, 0, 0, 0, 0, 0, 0, 0, 0, 0, 0, 0, 0, 0, 0, 0, 0, 0, 0, 0, 0, 0, 0, 0, 0, 0, 0, 0, 0, 0, 0, 0, 0, 0, 0, 0, 0, 0, 0, 0, 0, 0, 0,
            0, 0, 0, 0, 0, 0, 0, 0, 0, 0, 0, 0, 0, 0, 0, 0, 0, 0, 0, 0, 0, 0, 0, 0, 0, 0, 0, 0, 0, 0, 0, 0, 0, 0, 0, 0, 0, 0, 0, 0, 0, 0, 0, 0,
            0, 0, 0, 0, 0, 0, 0, 0, 0, 0, 0, 0, 0, 0, 0, 0, 0, 0, 0, 0, 0, 0, 0, 0, 0, 0, 0, 0, 0, 0, 0, 0, 0, 0, 0, 0, 0, 0, 0, 0, 0, 0, 0, 0,
            0, 0, 0, 0, 0, 0, 0, 0, 0, 0, 0, 0, 0, 0, 0, 0, 0, 0, 0, 0, 0, 0, 0, 0, 0, 0, 0, 0, 0, 0, 0, 0, 0, 0, 0, 0, 0, 0, 0, 0, 0, 0, 0, 0,
            0, 0, 0, 0, 0, 0, 0, 0, 0, 0, 0, 0, 0, 0, 0, 0, 0, 0, 0, 0, 0, 0, 0, 0, 0, 0, 0, 0, 0, 0, 0, 0, 0, 0, 0, 0, 0, 0, 0, 0, 0, 0, 0, 0,
            0, 0, 0, 0, 0, 161, 162, 161, 162, 161, 162, 161, 162, 161, 162, 161, 162, 161, 162, 161, 162, 161, 162, 161, 162, 161, 162, 161, 162, 161, 162, 161, 162, 161, 162, 161, 162, 161, 162, 0, 0, 0, 0, 0,
            0, 0, 0, 0, 0, 308, 308, 308, 308, 308, 308, 308, 308, 308, 308, 308, 308, 308, 308, 308, 308, 308, 308, 308, 308, 308, 308, 308, 308, 308, 308, 308, 308, 308, 308, 308, 308, 308, 308, 0, 0, 0, 0, 0,
            0, 0, 0, 0, 0, 285, 285, 285, 285, 285, 285, 285, 285, 285, 285, 285, 285, 285, 285, 285, 285, 285, 285, 285, 285, 285, 285, 285, 285, 285, 285, 285, 285, 285, 285, 285, 285, 285, 285, 0, 0, 0, 0, 0,
            0, 0, 0, 0, 0, 305, 305, 305, 305, 305, 305, 305, 305, 305, 305, 305, 305, 305, 305, 305, 305, 305, 305, 305, 305, 305, 305, 305, 305, 305, 305, 305, 305, 305, 305, 305, 305, 305, 305, 0, 0, 0, 0, 0,
            0, 0, 0, 0, 0, 305, 305, 305, 305, 305, 305, 305, 305, 305, 305, 305, 305, 305, 305, 305, 305, 305, 305, 305, 305, 305, 305, 305, 305, 305, 305, 305, 305, 305, 305, 305, 305, 305, 305, 0, 0, 0, 0, 0,
            0, 0, 0, 0, 0, 305, 305, 305, 305, 305, 305, 305, 305, 305, 305, 305, 305, 305, 305, 305, 305, 305, 305, 305, 305, 305, 305, 305, 305, 305, 305, 305, 305, 305, 305, 305, 305, 305, 305, 0, 0, 0, 0, 0,
            0, 0, 0, 0, 0, 305, 305, 305, 305, 305, 305, 305, 305, 305, 305, 305, 305, 305, 305, 305, 305, 305, 305, 305, 305, 305, 305, 305, 305, 305, 305, 305, 305, 305, 305, 305, 305, 305, 305, 0, 0, 0, 0, 0,
            0, 0, 0, 0, 0, 305, 305, 305, 305, 305, 305, 305, 305, 305, 305, 305, 305, 305, 305, 305, 305, 305, 305, 305, 305, 305, 305, 305, 305, 305, 305, 305, 305, 305, 305, 305, 305, 305, 305, 0, 0, 0, 0, 0,
            0, 0, 0, 0, 0, 305, 305, 305, 305, 305, 305, 305, 305, 305, 305, 305, 305, 305, 305, 305, 305, 305, 305, 305, 305, 305, 305, 305, 305, 305, 305, 305, 305, 305, 305, 305, 305, 305, 305, 0, 0, 0, 0, 0,
            0, 0, 0, 0, 0, 0, 0, 0, 0, 0, 0, 0, 0, 0, 0, 0, 0, 0, 0, 0, 0, 0, 0, 0, 0, 0, 0, 0, 0, 0, 0, 0, 0, 0, 0, 0, 0, 0, 0, 0, 0, 0, 0, 0,
            0, 0, 0, 0, 0, 0, 0, 0, 0, 0, 0, 0, 0, 0, 0, 0, 0, 0, 0, 0, 0, 0, 0, 0, 0, 0, 0, 0, 0, 0, 0, 0, 0, 0, 0, 0, 0, 0, 0, 0, 0, 0, 0, 0,
            0, 0, 0, 0, 0, 0, 0, 0, 0, 0, 0, 0, 0, 0, 0, 0, 0, 0, 0, 0, 0, 0, 0, 0, 0, 0, 0, 0, 0, 0, 0, 0, 0, 0, 0, 0, 0, 0, 0, 0, 0, 0, 0, 0],
         "height":18,
         "id":2,
         "name":"water",
         "opacity":1,
         "type":"tilelayer",
         "visible":true,
         "width":44,
         "x":0,
         "y":0
        }, 
        {
         "draworder":"topdown",
         "id":3,
         "name":"coins",
         "objects":[
                {
                 "gid":147,
                 "height":16,
                 "id":2,
                 "name":"",
                 "rotation":0,
                 "type":"",
                 "visible":true,
                 "width":16,
                 "x":256,
                 "y":176
                }, 
                {
                 "gid":147,
                 "height":16,
                 "id":3,
                 "name":"",
                 "rotation":0,
                 "type":"",
                 "visible":true,
                 "width":16,
                 "x":496,
                 "y":112
                }, 
                {
                 "gid":147,
                 "height":16,
                 "id":4,
                 "name":"",
                 "rotation":0,
                 "type":"",
                 "visible":true,
                 "width":16,
                 "x":144,
                 "y":208
                }, 
                {
                 "gid":147,
                 "height":16,
                 "id":5,
                 "name":"",
                 "rotation":0,
                 "type":"",
                 "visible":true,
                 "width":16,
                 "x":592,
                 "y":144
                }],
         "opacity":1,
         "type":"objectgroup",
         "visible":true,
         "x":0,
         "y":0
        }, 
        {
         "draworder":"topdown",
         "id":4,
         "name":"chests",
         "objects":[
                {
                 "gid":124,
                 "height":16,
                 "id":11,
                 "name":"",
                 "rotation":0,
                 "type":"",
                 "visible":true,
                 "width":16,
                 "x":400,
                 "y":208
                }],
         "opacity":1,
         "type":"objectgroup",
         "visible":true,
         "x":0,
         "y":0
        }, 
        {
         "draworder":"topdown",
         "id":5,
         "name":"doors",
         "objects":[
                {
                 "gid":81,
                 "height":16,
                 "id":12,
                 "name":"",
                 "rotation":0,
                 "type":"",
                 "visible":true,
                 "width":16,
                 "x":576,
                 "y":80
                }],
         "opacity":1,
         "type":"objectgroup",
         "visible":true,
         "x":0,
         "y":0
        }, 
        {
         "draworder":"topdown",
         "id":7,
         "name":"spikes",
         "objects":[
                {
                 "gid":1073741966,
                 "height":16,
                 "id":6,
                 "name":"",
                 "rotation":0,
                 "type":"",
                 "visible":true,
                 "width":16,
                 "x":608,
                 "y":112
                }, 
                {
                 "gid":1073741966,
                 "height":16,
                 "id":7,
                 "name":"",
                 "rotation":0,
                 "type":"",
                 "visible":true,
                 "width":16,
                 "x":592,
                 "y":112
                }, 
                {
                 "gid":1073741966,
                 "height":16,
                 "id":8,
                 "name":"",
                 "rotation":0,
                 "type":"",
                 "visible":true,
                 "width":16,
                 "x":576,
                 "y":112
                }, 
                {
                 "gid":1073741966,
                 "height":16,
                 "id":9,
                 "name":"",
                 "rotation":0,
                 "type":"",
                 "visible":true,
                 "width":16,
                 "x":560,
                 "y":112
                }, 
                {
                 "gid":1073741966,
                 "height":16,
                 "id":10,
                 "name":"",
                 "rotation":0,
                 "type":"",
                 "visible":true,
                 "width":16,
                 "x":544,
                 "y":112
                }],
         "opacity":1,
         "type":"objectgroup",
         "visible":true,
         "x":0,
         "y":0
        }, 
        {
         "draworder":"topdown",
         "id":8,
         "name":"player",
         "objects":[
                {
                 "gid":61,
                 "height":16,
                 "id":1,
                 "name":"",
                 "rotation":0,
                 "type":"",
                 "visible":true,
                 "width":16,
                 "x":112,
                 "y":16
                }],
         "opacity":1,
         "type":"objectgroup",
         "visible":true,
         "x":0,
         "y":0
        }],
 "nextlayerid":10,
 "nextobjectid":13,
 "orientation":"orthogonal",
 "renderorder":"right-down",
 "tiledversion":"1.11.0",
 "tileheight":16,
 "tilesets":[
        {
         "columns":20,
         "firstgid":1,
         "image":"1 bit dungeon tileset white.png",
         "imageheight":272,
         "imagewidth":320,
         "margin":0,
         "name":"1 bit dungeon tileset white",
         "spacing":0,
         "tilecount":340,
         "tileheight":16,
         "tiles":[
                {
                 "animation":[
                        {
                         "duration":300,
                         "tileid":20
                        }, 
                        {
                         "duration":300,
                         "tileid":21
                        }, 
                        {
                         "duration":300,
                         "tileid":22
                        }],
                 "id":20
                }, 
                {
                 "id":85,
                 "properties":[
                        {
                         "name":"collides",
                         "type":"bool",
                         "value":true
                        }]
                }, 
                {
                 "id":86,
                 "properties":[
                        {
                         "name":"collides",
                         "type":"bool",
                         "value":true
                        }]
                }, 
                {
                 "id":87,
                 "properties":[
                        {
                         "name":"collides",
                         "type":"bool",
                         "value":true
                        }]
                }, 
                {
                 "id":88,
                 "properties":[
                        {
                         "name":"collides",
                         "type":"bool",
                         "value":true
                        }]
                }, 
                {
                 "id":89,
                 "properties":[
                        {
                         "name":"collides",
                         "type":"bool",
                         "value":true
                        }]
                }, 
                {
                 "id":90,
                 "properties":[
                        {
                         "name":"collides",
                         "type":"bool",
                         "value":true
                        }]
                }, 
                {
                 "id":91,
                 "properties":[
                        {
                         "name":"collides",
                         "type":"bool",
                         "value":true
                        }]
                }, 
                {
                 "animation":[
                        {
                         "duration":300,
                         "tileid":108
                        }, 
                        {
                         "duration":300,
                         "tileid":109
                        }, 
                        {
                         "duration":300,
                         "tileid":110
                        }],
                 "id":108
                }, 
                {
                 "animation":[
                        {
                         "duration":300,
                         "tileid":109
                        }, 
                        {
                         "duration":300,
                         "tileid":110
                        }, 
                        {
                         "duration":300,
                         "tileid":108
                        }],
                 "id":109
                }, 
                {
                 "animation":[
                        {
                         "duration":300,
                         "tileid":110
                        }, 
                        {
                         "duration":300,
                         "tileid":108
                        }, 
                        {
                         "duration":300,
                         "tileid":109
                        }],
                 "id":110
                }, 
                {
                 "id":140,
                 "properties":[
                        {
                         "name":"ladder",
                         "type":"bool",
                         "value":true
                        }]
                }, 
                {
                 "id":142,
                 "properties":[
                        {
                         "name":"text",
                         "type":"bool",
                         "value":true
                        }]
                }, 
                {
                 "animation":[
                        {
                         "duration":300,
                         "tileid":146
                        }, 
                        {
                         "duration":300,
                         "tileid":147
                        }, 
                        {
                         "duration":300,
                         "tileid":148
                        }, 
                        {
                         "duration":300,
                         "tileid":149
                        }],
                 "id":146
                }, 
                {
                 "animation":[
                        {
                         "duration":300,
                         "tileid":160
                        }, 
                        {
                         "duration":300,
                         "tileid":161
                        }],
                 "id":160,
                 "properties":[
                        {
                         "name":"depth",
                         "type":"int",
                         "value":0
                        }]
                }, 
                {
                 "animation":[
                        {
                         "duration":300,
                         "tileid":161
                        }, 
                        {
                         "duration":300,
                         "tileid":160
                        }],
                 "id":161,
                 "properties":[
                        {
                         "name":"depth",
                         "type":"int",
                         "value":0
                        }]
                }, 
                {
                 "animation":[
                        {
                         "duration":300,
                         "tileid":180
                        }, 
                        {
                         "duration":300,
                         "tileid":181
                        }, 
                        {
                         "duration":300,
                         "tileid":180
                        }, 
                        {
                         "duration":300,
                         "tileid":181
                        }, 
                        {
                         "duration":300,
                         "tileid":182
                        }, 
                        {
                         "duration":300,
                         "tileid":183
                        }, 
                        {
                         "duration":300,
                         "tileid":184
                        }, 
                        {
                         "duration":300,
                         "tileid":185
                        }],
                 "id":180,
                 "properties":[
                        {
                         "name":"depth",
                         "type":"int",
                         "value":0
                        }]
                }, 
                {
                 "animation":[
                        {
                         "duration":300,
                         "tileid":181
                        }, 
                        {
                         "duration":300,
                         "tileid":180
                        }, 
                        {
                         "duration":300,
                         "tileid":181
                        }, 
                        {
                         "duration":300,
                         "tileid":182
                        }, 
                        {
                         "duration":300,
                         "tileid":183
                        }, 
                        {
                         "duration":300,
                         "tileid":184
                        }, 
                        {
                         "duration":300,
                         "tileid":185
                        }, 
                        {
                         "duration":300,
                         "tileid":180
                        }],
                 "id":181,
                 "properties":[
                        {
                         "name":"depth",
                         "type":"int",
                         "value":0
                        }]
                }, 
                {
                 "animation":[
                        {
                         "duration":300,
                         "tileid":180
                        }, 
                        {
                         "duration":300,
                         "tileid":181
                        }, 
                        {
                         "duration":300,
                         "tileid":182
                        }, 
                        {
                         "duration":300,
                         "tileid":183
                        }, 
                        {
                         "duration":300,
                         "tileid":184
                        }, 
                        {
                         "duration":300,
                         "tileid":185
                        }, 
                        {
                         "duration":300,
                         "tileid":180
                        }, 
                        {
                         "duration":300,
                         "tileid":181
                        }],
                 "id":182,
                 "properties":[
                        {
                         "name":"depth",
                         "type":"int",
                         "value":0
                        }]
                }, 
                {
                 "id":183,
                 "properties":[
                        {
                         "name":"depth",
                         "type":"int",
                         "value":0
                        }]
                }, 
                {
                 "id":184,
                 "properties":[
                        {
                         "name":"depth",
                         "type":"int",
                         "value":0
                        }]
                }, 
                {
                 "id":185,
                 "properties":[
                        {
                         "name":"depth",
                         "type":"int",
                         "value":0
                        }]
                }, 
                {
                 "id":284,
                 "properties":[
                        {
                         "name":"depth",
                         "type":"int",
                         "value":2
                        }]
                }, 
                {
                 "id":286,
                 "properties":[
                        {
                         "name":"depth",
                         "type":"int",
                         "value":1
                        }]
                }, 
                {
                 "id":287,
                 "properties":[
                        {
                         "name":"depth",
                         "type":"int",
                         "value":1
                        }]
                }, 
                {
                 "id":304,
                 "properties":[
                        {
                         "name":"depth",
                         "type":"int",
                         "value":3
                        }]
                }, 
                {
                 "id":306,
                 "properties":[
                        {
                         "name":"depth",
                         "type":"int",
                         "value":1
                        }]
                }, 
                {
                 "id":307,
                 "properties":[
                        {
                         "name":"depth",
                         "type":"int",
                         "value":1
                        }]
                }],
         "tilewidth":16
        }],
 "tilewidth":16,
 "type":"map",
 "version":"1.10",
 "width":44
}